Streaming Spotify TOP 100
…
Menjawab Pertanyaan

1. Banyak lagu yang dimiliki artis pada top 100

nama <- df %>%
  group_by(artist) %>%
  dplyr::summarize(Total=n())
print(nama)

## # A tibble: 64 x 2
##    artist              Total
##    <fct>               <int>
##  1 24kGoldn                1
##  2 5 Seconds of Summer     1
##  3 Alan Walker             1
##  4 Ariana Grande           2
##  5 Avicii                  1
##  6 benny blanco            1
##  7 Billie Eilish           3
##  8 Bruno Mars              1
##  9 Calvin Harris           1
## 10 Camila Cabello          1
## # ... with 54 more rows
…
